CA5/SAYACEmbeddedSystem/wave.vcd
$date
     Sep 22, 2025       14:51:36
$end

$version
 SystemC 2.3.3-Accellera --- May  2 2025 21:03:04
$end

$timescale
     1 ps
$end

$scope module SystemC $end
$var wire    1  aaaaa  clk       $end
$var wire   16  aaaab  mmaControlReg [15:0]  $end
$var wire   16  aaaac  dmaControlReg [15:0]  $end
$var wire   16  aaaad  dmaByteCount [15:0]  $end
$var wire   16  aaaae  dmaFromAddress [15:0]  $end
$var wire   16  aaaaf  dmaToAddress [15:0]  $end
$var wire   16  aaaag  picOUT [15:0]  $end
$var wire    8  aaaah  picIR [7:0]  $end
$var wire    1  aaaai  busInitiatorReq0       $end
$var wire    1  aaaaj  busInitiatorGnt0       $end
$var wire    1  aaaak  busInitiatorReq1       $end
$var wire    1  aaaal  busInitiatorGnt1       $end
$var wire    1  aaaam  busTargetCS0       $end
$var wire    1  aaaan  busTargetCS1       $end
$var wire    1  aaaao  busTargetCS2       $end
$var wire    1  aaaap  busTargetCS3       $end
$var wire   16  aaaaq  busAddressBus [15:0]  $end
$var wire   16  aaaar  busDataBus [15:0]  $end
$var wire    1  aaaas  busTargetReadyBus       $end
$var wire   16  aaaat  sayacPC [15:0]  $end
$var wire    1  aaaau  picINT       $end
$var wire    1  aaaav  dmaInterrupt       $end
$var wire    1  aaaaw  dmaConfigPortReady       $end
$var wire    1  aaaax  dmaConfigPortRD       $end
$var wire    1  aaaay  dmaConfigPortWR       $end
$var wire   16  aaaaz  dmaConfigPortOut [15:0]  $end
$var wire   16  aaaba  dmaConfigPortIn [15:0]  $end
$var wire   16  aaabb   dmaConfigPortAddr [15:0]  $end
$var wire    1  aaabc  dmaConfigPortCS       $end
$var wire    1  aaabd  dmaInitiatorReady       $end
$var wire    1  aaabe  dmaInitiatorRD       $end
$var wire    1  aaabf  dmaInitiatorWR       $end
$var wire   16  aaabg  dmaInitiatorOut [15:0]  $end
$var wire   16  aaabh  dmaInitiatorIn [15:0]  $end
$var wire   16  aaabi  dmaInitiatorAddr [15:0]  $end
$var wire   16  aaabj  mmaDMAOut [15:0]  $end
$var wire   16  aaabk  mmaDMAIn [15:0]  $end
$var wire    1  aaabl  mmaInterrupt       $end
$var wire    1  aaabm   MMAPortReady       $end
$var wire    1  aaabn   MMAPortRD       $end
$var wire    1  aaabo   MMAPortWR       $end
$var wire   16  aaabp   MMAPortOut [15:0]  $end
$var wire   16  aaabq   MMAPortIn [15:0]  $end
$var wire   16  aaabr   MMAPortAddr [15:0]  $end
$var wire    1  aaabs   MMAPortCS       $end
$var wire    1  aaabt   memPortReady       $end
$var wire    1  aaabu   memPortRD       $end
$var wire    1  aaabv   memPortWR       $end
$var wire   16  aaabw   memPortOut [15:0]  $end
$var wire   16  aaabx   memPortIn [15:0]  $end
$var wire   16  aaaby   memPortAddr [15:0]  $end
$var wire    1  aaabz   memPortCS       $end
$var wire    1  aaaca  cpuInitiatorReady       $end
$var wire    1  aaacb  cpuInitiatorRD       $end
$var wire    1  aaacc  cpuInitiatorWR       $end
$var wire   16  aaacd  cpuInitiatorOut [15:0]  $end
$var wire   16  aaace  cpuInitiatorIn [15:0]  $end
$var wire   16  aaacf  cpuInitiatorAddr [15:0]  $end
$var wire    1  aaacg  busInitiatorReady1       $end
$var wire    1  aaach  busInitiatorReady0       $end
$var wire    1  aaaci  busInitiatorRD1       $end
$var wire    1  aaacj  busInitiatorRD0       $end
$var wire    1  aaack  busInitiatorWR1       $end
$var wire    1  aaacl  busInitiatorWR0       $end
$var wire   16  aaacm  busInitiatorOut1 [15:0]  $end
$var wire   16  aaacn  busInitiatorOut0 [15:0]  $end
$var wire   16  aaaco  busInitiatorIn1 [15:0]  $end
$var wire   16  aaacp  busInitiatorIn0 [15:0]  $end
$var wire   16  aaacq  busInitiatorAddr1 [15:0]  $end
$var wire   16  aaacr  busInitiatorAddr0 [15:0]  $end
$upscope $end
$enddefinitions  $end

$comment
All initial values are dumped below at time 0 sec = 0 timescale units.
$end

$dumpvars
0aaaaa
b0 aaaab
b0 aaaac
b10000 aaaad
b10 aaaae
b1000000000010 aaaaf
bXXXXXXXXXXXXXXXX aaaag
b0 aaaah
1aaaai
0aaaaj
0aaaak
0aaaal
0aaaam
0aaaan
0aaaao
0aaaap
bZZZZZZZZZZZZZZZZ aaaaq
bXXXXXXXXXXXXXXXX aaaar
xaaaas
b0 aaaat
xaaaau
0aaaav
1aaaaw
zaaaax
zaaaay
bXXXXXXXXXXXXXXXX aaaaz
bXXXXXXXXXXXXXXXX aaaba
bZZZZZZZZZZZZZZZZ aaabb
0aaabc
1aaabd
0aaabe
0aaabf
b0 aaabg
b0 aaabh
b0 aaabi
b0 aaabj
b0 aaabk
0aaabl
1aaabm
zaaabn
zaaabo
bXXXXXXXXXXXXXXXX aaabp
bXXXXXXXXXXXXXXXX aaabq
bZZZZZZZZZZZZZZZZ aaabr
0aaabs
0aaabt
zaaabu
zaaabv
b0 aaabw
bXXXXXXXXXXXXXXXX aaabx
bZZZZZZZZZZZZZZZZ aaaby
0aaabz
0aaaca
1aaacb
0aaacc
bXXXXXXXXXXXXXXXX aaacd
b0 aaace
b0 aaacf
1aaacg
0aaach
0aaaci
1aaacj
0aaack
0aaacl
b0 aaacm
bXXXXXXXXXXXXXXXX aaacn
b0 aaaco
b0 aaacp
b0 aaacq
b0 aaacr
$end

#5000
1aaaaa
1aaaaj
1aaaao
b0 aaaaq
b101000000010001 aaaar
0aaaas
1aaaax
0aaaay
b101000000010001 aaaba
b0 aaabb
1aaabn
0aaabo
b101000000010001 aaabq
b0 aaabr
1aaabu
0aaabv
b101000000010001 aaabw
b101000000010001 aaabx
b0 aaaby
1aaabz

#7500
0aaaaa

#10000
1aaaaa
0aaaau

#12500
0aaaaa

#15000
1aaaaa

#17500
0aaaaa

#20000
1aaaaa

#22500
0aaaaa

#25000
1aaaaa

#27500
0aaaaa

#30000
1aaaaa

#32500
0aaaaa

#35000
1aaaaa
1aaaas
1aaabt

#37500
0aaaaa

#40000
1aaaaa
1aaaca
b101000000010001 aaace
1aaach
b101000000010001 aaacp

#42500
0aaaaa

#45000
1aaaaa
0aaaai
0aaaaj
0aaaao
bZZZZZZZZZZZZZZZZ aaaaq
b1 aaaat
zaaaax
zaaaay
bZZZZZZZZZZZZZZZZ aaabb
zaaabn
zaaabo
bZZZZZZZZZZZZZZZZ aaabr
0aaabt
zaaabu
zaaabv
b0 aaabw
bZZZZZZZZZZZZZZZZ aaaby
0aaabz
0aaacb
b1011010 aaacf
0aaacj
b1011010 aaacr

#47500
0aaaaa

#50000
1aaaaa
1aaaai
0aaaca
1aaacb
b1 aaacf
0aaach
1aaacj
b1 aaacr

#52500
0aaaaa

#55000
1aaaaa
1aaaaj
1aaaao
b1 aaaaq
b110100000000001 aaaar
0aaaas
1aaaax
0aaaay
b110100000000001 aaaba
b1 aaabb
1aaabn
0aaabo
b110100000000001 aaabq
b1 aaabr
1aaabu
0aaabv
b110100000000001 aaabw
b110100000000001 aaabx
b1 aaaby
1aaabz

#57500
0aaaaa

#60000
1aaaaa

#62500
0aaaaa

#65000
1aaaaa

#67500
0aaaaa

#70000
1aaaaa

#72500
0aaaaa

#75000
1aaaaa

#77500
0aaaaa

#80000
1aaaaa

#82500
0aaaaa

#85000
1aaaaa
1aaaas
1aaabt

#87500
0aaaaa

#90000
1aaaaa
1aaaca
b110100000000001 aaace
1aaach
b110100000000001 aaacp

#92500
0aaaaa

#95000
1aaaaa
0aaaai
0aaaaj
0aaaao
bZZZZZZZZZZZZZZZZ aaaaq
b10 aaaat
zaaaax
zaaaay
bZZZZZZZZZZZZZZZZ aaabb
zaaabn
zaaabo
bZZZZZZZZZZZZZZZZ aaabr
0aaabt
zaaabu
zaaabv
b0 aaabw
bZZZZZZZZZZZZZZZZ aaaby
0aaabz
0aaacb
b1011010 aaacf
0aaacj
b1011010 aaacr

#97500
0aaaaa

#100000
1aaaaa
1aaaai
0aaaca
1aaacb
b10 aaacf
0aaach
1aaacj
b10 aaacr

#102500
0aaaaa

#105000
1aaaaa
1aaaaj
1aaaao
b10 aaaaq
b101000000100010 aaaar
0aaaas
1aaaax
0aaaay
b101000000100010 aaaba
b10 aaabb
1aaabn
0aaabo
b101000000100010 aaabq
b10 aaabr
1aaabu
0aaabv
b101000000100010 aaabw
b101000000100010 aaabx
b10 aaaby
1aaabz

#107500
0aaaaa

#110000
1aaaaa

#112500
0aaaaa

#115000
1aaaaa

#117500
0aaaaa

#120000
1aaaaa

#122500
0aaaaa

#125000
1aaaaa

#127500
0aaaaa

#130000
1aaaaa

#132500
0aaaaa

#135000
1aaaaa
1aaaas
1aaabt

#137500
0aaaaa

#140000
1aaaaa
1aaaca
b101000000100010 aaace
1aaach
b101000000100010 aaacp

#142500
0aaaaa

#145000
1aaaaa
0aaaai
0aaaaj
0aaaao
bZZZZZZZZZZZZZZZZ aaaaq
b11 aaaat
zaaaax
zaaaay
bZZZZZZZZZZZZZZZZ aaabb
zaaabn
zaaabo
bZZZZZZZZZZZZZZZZ aaabr
0aaabt
zaaabu
zaaabv
b0 aaabw
bZZZZZZZZZZZZZZZZ aaaby
0aaabz
0aaacb
b1011010 aaacf
0aaacj
b1011010 aaacr

#147500
0aaaaa

#150000
1aaaaa
1aaaai
0aaaca
1aaacb
b11 aaacf
0aaach
1aaacj
b11 aaacr

#152500
0aaaaa

#155000
1aaaaa
1aaaaj
1aaaao
b11 aaaaq
b10010000100001 aaaar
0aaaas
1aaaax
0aaaay
b10010000100001 aaaba
b11 aaabb
1aaabn
0aaabo
b10010000100001 aaabq
b11 aaabr
1aaabu
0aaabv
b10010000100001 aaabw
b10010000100001 aaabx
b11 aaaby
1aaabz

#157500
0aaaaa

#160000
1aaaaa

#162500
0aaaaa

#165000
1aaaaa

#167500
0aaaaa

#170000
1aaaaa

#172500
0aaaaa

#175000
1aaaaa

#177500
0aaaaa

#180000
1aaaaa

#182500
0aaaaa

#185000
1aaaaa
1aaaas
1aaabt

#187500
0aaaaa

#190000
1aaaaa
1aaaca
b10010000100001 aaace
1aaach
b10010000100001 aaacp

#192500
0aaaaa

#195000
1aaaaa
0aaaai
0aaaaj
0aaaao
bZZZZZZZZZZZZZZZZ aaaaq
zaaaax
zaaaay
bZZZZZZZZZZZZZZZZ aaabb
zaaabn
zaaabo
bZZZZZZZZZZZZZZZZ aaabr
0aaabt
zaaabu
zaaabv
b0 aaabw
bZZZZZZZZZZZZZZZZ aaaby
0aaabz
0aaacb
b1011010 aaacf
0aaacj
b1011010 aaacr

#197500
0aaaaa

#200000
1aaaaa
1aaaai
0aaaca
1aaacc
b10 aaacd
b1000000000000001 aaacf
0aaach
1aaacl
b10 aaacn
b1000000000000001 aaacr

#202500
0aaaaa

#205000
1aaaaa
1aaaaj
1aaaam
b1000000000000001 aaaaq
b10 aaaar
0aaaax
1aaaay
b10 aaaba
b1 aaabb
0aaabn
1aaabo
b10 aaabq
b1 aaabr
1aaabs
0aaabu
1aaabv
b10 aaabx
b1 aaaby

#207500
0aaaaa

#210000
1aaaaa
0aaaas
0aaabm
b0 aaabp
1aaaca
1aaach

#212500
0aaaaa

#215000
1aaaaa
0aaaai
0aaaaj
0aaaam
bZZZZZZZZZZZZZZZZ aaaaq
1aaaas
b100 aaaat
zaaaax
zaaaay
bZZZZZZZZZZZZZZZZ aaabb
1aaabm
zaaabn
zaaabo
bZZZZZZZZZZZZZZZZ aaabr
0aaabs
zaaabu
zaaabv
bZZZZZZZZZZZZZZZZ aaaby
0aaacc
0aaacl

#217500
0aaaaa

#220000
1aaaaa
1aaaai
0aaaca
1aaacb
b100 aaacf
0aaach
1aaacj
b100 aaacr

#222500
0aaaaa

#225000
1aaaaa
1aaaaj
1aaaao
b100 aaaaq
b101000000100001 aaaar
0aaaas
1aaaax
0aaaay
b101000000100001 aaaba
b100 aaabb
1aaabn
0aaabo
b101000000100001 aaabq
b100 aaabr
1aaabu
0aaabv
b101000000100001 aaabw
b101000000100001 aaabx
b100 aaaby
1aaabz
b10 aaace
b10 aaacp

#227500
0aaaaa

#230000
1aaaaa

#232500
0aaaaa

#235000
1aaaaa

#237500
0aaaaa

#240000
1aaaaa

#242500
0aaaaa

#245000
1aaaaa

#247500
0aaaaa

#250000
1aaaaa

#252500
0aaaaa

#255000
1aaaaa
1aaaas
1aaabt

#257500
0aaaaa

#260000
1aaaaa
1aaaca
b101000000100001 aaace
1aaach
b101000000100001 aaacp

#262500
0aaaaa

#265000
1aaaaa
0aaaai
0aaaaj
0aaaao
bZZZZZZZZZZZZZZZZ aaaaq
b101 aaaat
zaaaax
zaaaay
bZZZZZZZZZZZZZZZZ aaabb
zaaabn
zaaabo
bZZZZZZZZZZZZZZZZ aaabr
0aaabt
zaaabu
zaaabv
b0 aaabw
bZZZZZZZZZZZZZZZZ aaaby
0aaabz
0aaacb
b1011010 aaacf
0aaacj
b1011010 aaacr

#267500
0aaaaa

#270000
1aaaaa
1aaaai
0aaaca
1aaacb
b101 aaacf
0aaach
1aaacj
b101 aaacr

#272500
0aaaaa

#275000
1aaaaa
1aaaaj
1aaaao
b101 aaaaq
b110100000000001 aaaar
0aaaas
1aaaax
0aaaay
b110100000000001 aaaba
b101 aaabb
1aaabn
0aaabo
b110100000000001 aaabq
b101 aaabr
1aaabu
0aaabv
b110100000000001 aaabw
b110100000000001 aaabx
b101 aaaby
1aaabz

#277500
0aaaaa

#280000
1aaaaa

#282500
0aaaaa

#285000
1aaaaa

#287500
0aaaaa

#290000
1aaaaa

#292500
0aaaaa

#295000
1aaaaa

#297500
0aaaaa

#300000
1aaaaa

#302500
0aaaaa

#305000
1aaaaa
1aaaas
1aaabt

#307500
0aaaaa

#310000
1aaaaa
1aaaca
b110100000000001 aaace
1aaach
b110100000000001 aaacp

#312500
0aaaaa

#315000
1aaaaa
0aaaai
0aaaaj
0aaaao
bZZZZZZZZZZZZZZZZ aaaaq
b110 aaaat
zaaaax
zaaaay
bZZZZZZZZZZZZZZZZ aaabb
zaaabn
zaaabo
bZZZZZZZZZZZZZZZZ aaabr
0aaabt
zaaabu
zaaabv
b0 aaabw
bZZZZZZZZZZZZZZZZ aaaby
0aaabz
0aaacb
b1011010 aaacf
0aaacj
b1011010 aaacr

#317500
0aaaaa

#320000
1aaaaa
1aaaai
0aaaca
1aaacb
b110 aaacf
0aaach
1aaacj
b110 aaacr

#322500
0aaaaa

#325000
1aaaaa
1aaaaj
1aaaao
b110 aaaaq
b101000000100011 aaaar
0aaaas
1aaaax
0aaaay
b101000000100011 aaaba
b110 aaabb
1aaabn
0aaabo
b101000000100011 aaabq
b110 aaabr
1aaabu
0aaabv
b101000000100011 aaabw
b101000000100011 aaabx
b110 aaaby
1aaabz

#327500
0aaaaa

#330000
1aaaaa

#332500
0aaaaa

#335000
1aaaaa

#337500
0aaaaa

#340000
1aaaaa

#342500
0aaaaa

#345000
1aaaaa

#347500
0aaaaa

#350000
1aaaaa

#352500
0aaaaa

#355000
1aaaaa
1aaaas
1aaabt

#357500
0aaaaa

#360000
1aaaaa
1aaaca
b101000000100011 aaace
1aaach
b101000000100011 aaacp

#362500
0aaaaa

#365000
1aaaaa
0aaaai
0aaaaj
0aaaao
bZZZZZZZZZZZZZZZZ aaaaq
b111 aaaat
zaaaax
zaaaay
bZZZZZZZZZZZZZZZZ aaabb
zaaabn
zaaabo
bZZZZZZZZZZZZZZZZ aaabr
0aaabt
zaaabu
zaaabv
b0 aaabw
bZZZZZZZZZZZZZZZZ aaaby
0aaabz
0aaacb
b1011010 aaacf
0aaacj
b1011010 aaacr

#367500
0aaaaa

#370000
1aaaaa
1aaaai
0aaaca
1aaacb
b111 aaacf
0aaach
1aaacj
b111 aaacr

#372500
0aaaaa

#375000
1aaaaa
1aaaaj
1aaaao
b111 aaaaq
b10010000110001 aaaar
0aaaas
1aaaax
0aaaay
b10010000110001 aaaba
b111 aaabb
1aaabn
0aaabo
b10010000110001 aaabq
b111 aaabr
1aaabu
0aaabv
b10010000110001 aaabw
b10010000110001 aaabx
b111 aaaby
1aaabz

#377500
0aaaaa

#380000
1aaaaa

#382500
0aaaaa

#385000
1aaaaa

#387500
0aaaaa

#390000
1aaaaa

#392500
0aaaaa

#395000
1aaaaa

#397500
0aaaaa

#400000
1aaaaa

#402500
0aaaaa

#405000
1aaaaa
1aaaas
1aaabt

#407500
0aaaaa

#410000
1aaaaa
1aaaca
b10010000110001 aaace
1aaach
b10010000110001 aaacp

#412500
0aaaaa

#415000
1aaaaa
0aaaai
0aaaaj
0aaaao
bZZZZZZZZZZZZZZZZ aaaaq
zaaaax
zaaaay
bZZZZZZZZZZZZZZZZ aaabb
zaaabn
zaaabo
bZZZZZZZZZZZZZZZZ aaabr
0aaabt
zaaabu
zaaabv
b0 aaabw
bZZZZZZZZZZZZZZZZ aaaby
0aaabz
0aaacb
b1011010 aaacf
0aaacj
b1011010 aaacr

#417500
0aaaaa

#420000
1aaaaa
1aaaai
0aaaca
1aaacc
b1000000000000010 aaacf
0aaach
1aaacl
b1000000000000010 aaacr

#422500
0aaaaa

#425000
1aaaaa
1aaaaj
1aaaam
b1000000000000010 aaaaq
b10 aaaar
0aaaax
1aaaay
b10 aaaba
b10 aaabb
0aaabn
1aaabo
b10 aaabq
b10 aaabr
1aaabs
0aaabu
1aaabv
b10 aaabx
b10 aaaby

#427500
0aaaaa

#430000
1aaaaa
0aaaas
0aaabm
1aaaca
1aaach

#432500
0aaaaa

#435000
1aaaaa
0aaaai
0aaaaj
0aaaam
bZZZZZZZZZZZZZZZZ aaaaq
1aaaas
b1000 aaaat
zaaaax
zaaaay
bZZZZZZZZZZZZZZZZ aaabb
1aaabm
zaaabn
zaaabo
bZZZZZZZZZZZZZZZZ aaabr
0aaabs
zaaabu
zaaabv
bZZZZZZZZZZZZZZZZ aaaby
0aaacc
0aaacl

#437500
0aaaaa

#440000
1aaaaa
1aaaai
0aaaca
1aaacb
b1000 aaacf
0aaach
1aaacj
b1000 aaacr

#442500
0aaaaa

#445000
1aaaaa
1aaaaj
1aaaao
b1000 aaaaq
b101000000110001 aaaar
0aaaas
1aaaax
0aaaay
b101000000110001 aaaba
b1000 aaabb
1aaabn
0aaabo
b101000000110001 aaabq
b1000 aaabr
1aaabu
0aaabv
b101000000110001 aaabw
b101000000110001 aaabx
b1000 aaaby
1aaabz
b10 aaace
b10 aaacp

#447500
0aaaaa

#450000
1aaaaa

#452500
0aaaaa

#455000
1aaaaa

#457500
0aaaaa

#460000
1aaaaa

#462500
0aaaaa

#465000
1aaaaa

#467500
0aaaaa

#470000
1aaaaa

#472500
0aaaaa

#475000
1aaaaa
1aaaas
1aaabt

#477500
0aaaaa

#480000
1aaaaa
1aaaca
b101000000110001 aaace
1aaach
b101000000110001 aaacp

#482500
0aaaaa

#485000
1aaaaa
0aaaai
0aaaaj
0aaaao
bZZZZZZZZZZZZZZZZ aaaaq
b1001 aaaat
zaaaax
zaaaay
bZZZZZZZZZZZZZZZZ aaabb
zaaabn
zaaabo
bZZZZZZZZZZZZZZZZ aaabr
0aaabt
zaaabu
zaaabv
b0 aaabw
bZZZZZZZZZZZZZZZZ aaaby
0aaabz
0aaacb
b1011010 aaacf
0aaacj
b1011010 aaacr

#487500
0aaaaa

#490000
1aaaaa
1aaaai
0aaaca
1aaacb
b1001 aaacf
0aaach
1aaacj
b1001 aaacr

#492500
0aaaaa

#495000
1aaaaa
1aaaaj
1aaaao
b1001 aaaaq
b110100000000001 aaaar
0aaaas
1aaaax
0aaaay
b110100000000001 aaaba
b1001 aaabb
1aaabn
0aaabo
b110100000000001 aaabq
b1001 aaabr
1aaabu
0aaabv
b110100000000001 aaabw
b110100000000001 aaabx
b1001 aaaby
1aaabz

#497500
0aaaaa

#500000
1aaaaa

#502500
0aaaaa

#505000
1aaaaa

#507500
0aaaaa

#510000
1aaaaa

#512500
0aaaaa

#515000
1aaaaa

#517500
0aaaaa

#520000
1aaaaa

#522500
0aaaaa

#525000
1aaaaa
1aaaas
1aaabt

#527500
0aaaaa

#530000
1aaaaa
1aaaca
b110100000000001 aaace
1aaach
b110100000000001 aaacp

#532500
0aaaaa

#535000
1aaaaa
0aaaai
0aaaaj
0aaaao
bZZZZZZZZZZZZZZZZ aaaaq
b1010 aaaat
zaaaax
zaaaay
bZZZZZZZZZZZZZZZZ aaabb
zaaabn
zaaabo
bZZZZZZZZZZZZZZZZ aaabr
0aaabt
zaaabu
zaaabv
b0 aaabw
bZZZZZZZZZZZZZZZZ aaaby
0aaabz
0aaacb
b1011010 aaacf
0aaacj
b1011010 aaacr

#537500
0aaaaa

#540000
1aaaaa
1aaaai
0aaaca
1aaacb
b1010 aaacf
0aaach
1aaacj
b1010 aaacr

#542500
0aaaaa

#545000
1aaaaa
1aaaaj
1aaaao
b1010 aaaaq
b101000000100011 aaaar
0aaaas
1aaaax
0aaaay
b101000000100011 aaaba
b1010 aaabb
1aaabn
0aaabo
b101000000100011 aaabq
b1010 aaabr
1aaabu
0aaabv
b101000000100011 aaabw
b101000000100011 aaabx
b1010 aaaby
1aaabz

#547500
0aaaaa

#550000
1aaaaa

#552500
0aaaaa

#555000
1aaaaa

#557500
0aaaaa

#560000
1aaaaa

#562500
0aaaaa

#565000
1aaaaa

#567500
0aaaaa

#570000
1aaaaa

#572500
0aaaaa

#575000
1aaaaa
1aaaas
1aaabt

#577500
0aaaaa

#580000
1aaaaa
1aaaca
b101000000100011 aaace
1aaach
b101000000100011 aaacp

#582500
0aaaaa

#585000
1aaaaa
0aaaai
0aaaaj
0aaaao
bZZZZZZZZZZZZZZZZ aaaaq
b1011 aaaat
zaaaax
zaaaay
bZZZZZZZZZZZZZZZZ aaabb
zaaabn
zaaabo
bZZZZZZZZZZZZZZZZ aaabr
0aaabt
zaaabu
zaaabv
b0 aaabw
bZZZZZZZZZZZZZZZZ aaaby
0aaabz
0aaacb
b1011010 aaacf
0aaacj
b1011010 aaacr

#587500
0aaaaa

#590000
1aaaaa
1aaaai
0aaaca
1aaacb
b1011 aaacf
0aaach
1aaacj
b1011 aaacr

#592500
0aaaaa

#595000
1aaaaa
1aaaaj
1aaaao
b1011 aaaaq
b10010000110001 aaaar
0aaaas
1aaaax
0aaaay
b10010000110001 aaaba
b1011 aaabb
1aaabn
0aaabo
b10010000110001 aaabq
b1011 aaabr
1aaabu
0aaabv
b10010000110001 aaabw
b10010000110001 aaabx
b1011 aaaby
1aaabz

#597500
0aaaaa

#600000
1aaaaa

#602500
0aaaaa

#605000
1aaaaa

#607500
0aaaaa

#610000
1aaaaa

#612500
0aaaaa

#615000
1aaaaa

#617500
0aaaaa

#620000
1aaaaa

#622500
0aaaaa

#625000
1aaaaa
1aaaas
1aaabt

#627500
0aaaaa

#630000
1aaaaa
1aaaca
b10010000110001 aaace
1aaach
b10010000110001 aaacp

#632500
0aaaaa

#635000
1aaaaa
0aaaai
0aaaaj
0aaaao
bZZZZZZZZZZZZZZZZ aaaaq
zaaaax
zaaaay
bZZZZZZZZZZZZZZZZ aaabb
zaaabn
zaaabo
bZZZZZZZZZZZZZZZZ aaabr
0aaabt
zaaabu
zaaabv
b0 aaabw
bZZZZZZZZZZZZZZZZ aaaby
0aaabz
0aaacb
b1011010 aaacf
0aaacj
b1011010 aaacr

#637500
0aaaaa

#640000
1aaaaa
1aaaai
0aaaca
1aaacc
b1000000000000011 aaacf
0aaach
1aaacl
b1000000000000011 aaacr

#642500
0aaaaa

#645000
1aaaaa
1aaaaj
1aaaam
b1000000000000011 aaaaq
b10 aaaar
0aaaax
1aaaay
b10 aaaba
b11 aaabb
0aaabn
1aaabo
b10 aaabq
b11 aaabr
1aaabs
0aaabu
1aaabv
b10 aaabx
b11 aaaby

#647500
0aaaaa

#650000
1aaaaa
0aaaas
0aaabm
1aaaca
1aaach

#652500
0aaaaa

#655000
1aaaaa
0aaaai
0aaaaj
0aaaam
bZZZZZZZZZZZZZZZZ aaaaq
1aaaas
b1100 aaaat
zaaaax
zaaaay
bZZZZZZZZZZZZZZZZ aaabb
1aaabm
zaaabn
zaaabo
bZZZZZZZZZZZZZZZZ aaabr
0aaabs
zaaabu
zaaabv
bZZZZZZZZZZZZZZZZ aaaby
0aaacc
0aaacl

#657500
0aaaaa

#660000
1aaaaa
1aaaai
0aaaca
1aaacb
b1100 aaacf
0aaach
1aaacj
b1100 aaacr

#662500
0aaaaa

#665000
1aaaaa
1aaaaj
1aaaao
b1100 aaaaq
b101000000000001 aaaar
0aaaas
1aaaax
0aaaay
b101000000000001 aaaba
b1100 aaabb
1aaabn
0aaabo
b101000000000001 aaabq
b1100 aaabr
1aaabu
0aaabv
b101000000000001 aaabw
b101000000000001 aaabx
b1100 aaaby
1aaabz
b10 aaace
b10 aaacp

#667500
0aaaaa

#670000
1aaaaa

#672500
0aaaaa

#675000
1aaaaa

#677500
0aaaaa

#680000
1aaaaa

#682500
0aaaaa

#685000
1aaaaa

#687500
0aaaaa

#690000
1aaaaa

#692500
0aaaaa

#695000
1aaaaa
1aaaas
1aaabt

#697500
0aaaaa

#700000
1aaaaa
1aaaca
b101000000000001 aaace
1aaach
b101000000000001 aaacp

#702500
0aaaaa

#705000
1aaaaa
0aaaai
0aaaaj
0aaaao
bZZZZZZZZZZZZZZZZ aaaaq
b1101 aaaat
zaaaax
zaaaay
bZZZZZZZZZZZZZZZZ aaabb
zaaabn
zaaabo
bZZZZZZZZZZZZZZZZ aaabr
0aaabt
zaaabu
zaaabv
b0 aaabw
bZZZZZZZZZZZZZZZZ aaaby
0aaabz
0aaacb
b1011010 aaacf
0aaacj
b1011010 aaacr

#707500
0aaaaa

#710000
1aaaaa
1aaaai
0aaaca
1aaacb
b1101 aaacf
0aaach
1aaacj
b1101 aaacr

#712500
0aaaaa

#715000
1aaaaa
1aaaaj
1aaaao
b1101 aaaaq
b110100000000001 aaaar
0aaaas
1aaaax
0aaaay
b110100000000001 aaaba
b1101 aaabb
1aaabn
0aaabo
b110100000000001 aaabq
b1101 aaabr
1aaabu
0aaabv
b110100000000001 aaabw
b110100000000001 aaabx
b1101 aaaby
1aaabz

#717500
0aaaaa

#720000
1aaaaa

#722500
0aaaaa

#725000
1aaaaa

#727500
0aaaaa

#730000
1aaaaa

#732500
0aaaaa

#735000
1aaaaa

#737500
0aaaaa

#740000
1aaaaa

#742500
0aaaaa

#745000
1aaaaa
1aaaas
1aaabt

#747500
0aaaaa

#750000
1aaaaa
1aaaca
b110100000000001 aaace
1aaach
b110100000000001 aaacp

#752500
0aaaaa

#755000
1aaaaa
0aaaai
0aaaaj
0aaaao
bZZZZZZZZZZZZZZZZ aaaaq
b1110 aaaat
zaaaax
zaaaay
bZZZZZZZZZZZZZZZZ aaabb
zaaabn
zaaabo
bZZZZZZZZZZZZZZZZ aaabr
0aaabt
zaaabu
zaaabv
b0 aaabw
bZZZZZZZZZZZZZZZZ aaaby
0aaabz
0aaacb
b1011010 aaacf
0aaacj
b1011010 aaacr

#757500
0aaaaa

#760000
1aaaaa
1aaaai
0aaaca
1aaacb
b1110 aaacf
0aaach
1aaacj
b1110 aaacr

#762500
0aaaaa

#765000
1aaaaa
1aaaaj
1aaaao
b1110 aaaaq
b101000000010011 aaaar
0aaaas
1aaaax
0aaaay
b101000000010011 aaaba
b1110 aaabb
1aaabn
0aaabo
b101000000010011 aaabq
b1110 aaabr
1aaabu
0aaabv
b101000000010011 aaabw
b101000000010011 aaabx
b1110 aaaby
1aaabz

#767500
0aaaaa

#770000
1aaaaa

#772500
0aaaaa

#775000
1aaaaa

#777500
0aaaaa

#780000
1aaaaa

#782500
0aaaaa

#785000
1aaaaa

#787500
0aaaaa

#790000
1aaaaa

#792500
0aaaaa

#795000
1aaaaa
1aaaas
1aaabt

#797500
0aaaaa

#800000
1aaaaa
1aaaca
b101000000010011 aaace
1aaach
b101000000010011 aaacp

#802500
0aaaaa

#805000
1aaaaa
0aaaai
0aaaaj
0aaaao
bZZZZZZZZZZZZZZZZ aaaaq
b1111 aaaat
zaaaax
zaaaay
bZZZZZZZZZZZZZZZZ aaabb
zaaabn
zaaabo
bZZZZZZZZZZZZZZZZ aaabr
0aaabt
zaaabu
zaaabv
b0 aaabw
bZZZZZZZZZZZZZZZZ aaaby
0aaabz
0aaacb
b1011010 aaacf
0aaacj
b1011010 aaacr

#807500
0aaaaa

#810000
1aaaaa
1aaaai
0aaaca
1aaacb
b1111 aaacf
0aaach
1aaacj
b1111 aaacr

#812500
0aaaaa

#815000
1aaaaa
1aaaaj
1aaaao
b1111 aaaaq
b10010000110001 aaaar
0aaaas
1aaaax
0aaaay
b10010000110001 aaaba
b1111 aaabb
1aaabn
0aaabo
b10010000110001 aaabq
b1111 aaabr
1aaabu
0aaabv
b10010000110001 aaabw
b10010000110001 aaabx
b1111 aaaby
1aaabz

#817500
0aaaaa

#820000
1aaaaa

#822500
0aaaaa

#825000
1aaaaa

#827500
0aaaaa

#830000
1aaaaa

#832500
0aaaaa

#835000
1aaaaa

#837500
0aaaaa

#840000
1aaaaa

#842500
0aaaaa

#845000
1aaaaa
1aaaas
1aaabt

#847500
0aaaaa

#850000
1aaaaa
1aaaca
b10010000110001 aaace
1aaach
b10010000110001 aaacp

#852500
0aaaaa

#855000
1aaaaa
0aaaai
0aaaaj
0aaaao
bZZZZZZZZZZZZZZZZ aaaaq
zaaaax
zaaaay
bZZZZZZZZZZZZZZZZ aaabb
zaaabn
zaaabo
bZZZZZZZZZZZZZZZZ aaabr
0aaabt
zaaabu
zaaabv
b0 aaabw
bZZZZZZZZZZZZZZZZ aaaby
0aaabz
0aaacb
b1011010 aaacf
0aaacj
b1011010 aaacr

#857500
0aaaaa

